[
  {
    "name": "InflationAllocation",
    "contractName": "InflationAllocation.sol",
    "address": "0x8858eeB3DfffA017D4BCE9801D340D36Cf895CCf"
  },
  {
    "name": "StateConnector",
    "contractName": "StateConnector.sol",
    "address": "0x1000000000000000000000000000000000000001"
  },
  {
    "name": "FlareDaemon",
    "contractName": "FlareDaemon.sol",
    "address": "0x1000000000000000000000000000000000000002"
  },
  {
    "name": "PriceSubmitter",
    "contractName": "PriceSubmitter.sol",
    "address": "0x1000000000000000000000000000000000000003"
  },
  {
    "name": "Inflation",
    "contractName": "Inflation.sol",
    "address": "0x500D1d6A4c7D8Ae28240b47c8FCde034D827fD5e"
  },
  {
    "name": "Supply",
    "contractName": "Supply.sol",
    "address": "0x8B5B7a6055E54a36fF574bbE40cf2eA68d5554b3"
  },
  {
    "name": "FtsoRewardManager",
    "contractName": "FtsoRewardManager.sol",
    "address": "0xEcc0a6dbC0bb4D51E4F84A315a9e5B0438cAD4f0"
  },
  {
    "name": "DataAvailabilityRewardManager",
    "contractName": "DataAvailabilityRewardManager.sol",
    "address": "0x20Ce94F404343aD2752A2D01b43fa407db9E0D00"
  },
  {
    "name": "CleanupBlockNumberManager",
    "contractName": "CleanupBlockNumberManager.sol",
    "address": "0x1d80315fac6aBd3EfeEbE97dEc44461ba7556160"
  },
  {
    "name": "FtsoRegistry",
    "contractName": "FtsoRegistry.sol",
    "address": "0x53369fd4680FfE3DfF39Fc6DDa9CfbfD43daeA2E"
  },
  {
    "name": "VoterWhitelister",
    "contractName": "VoterWhitelister.sol",
    "address": "0xB00cC45B4a7d3e1FEE684cFc4417998A1c183e6d"
  },
  {
    "name": "Distribution",
    "contractName": "Distribution.sol",
    "address": "0x58F132FBB86E21545A4Bace3C19f1C05d86d7A22"
  },
  {
    "name": "FtsoManager",
    "contractName": "FtsoManager.sol",
    "address": "0xa4bcDF64Cdd5451b6ac3743B414124A6299B65FF"
  },
  {
    "name": "WNat",
    "contractName": "WNat.sol",
    "address": "0x6082731fdAba4761277Fb31299ebC782AD3bCf24"
  },
  {
    "name": "FtsoXrp",
    "contractName": "Ftso.sol",
    "address": "0x06bA8d8af0dF898D0712DffFb0f862cC51AF45c2"
  },
  {
    "name": "FtsoLtc",
    "contractName": "Ftso.sol",
    "address": "0xb682dEEf4f8e298d86bFc3e21f50c675151FB974"
  },
  {
    "name": "FtsoXlm",
    "contractName": "Ftso.sol",
    "address": "0x1750499D05Ed1674d822430FB960d5F6731fDf64"
  },
  {
    "name": "FtsoDoge",
    "contractName": "Ftso.sol",
    "address": "0xE4C10Db67595aF2Cb4166c8C274e0140f7E43059"
  },
  {
    "name": "FtsoAda",
    "contractName": "Ftso.sol",
    "address": "0x099d9fF8F818290C8b5B7Db5bFca84CEebd2714c"
  },
  {
    "name": "FtsoAlgo",
    "contractName": "Ftso.sol",
    "address": "0x85bdE212E66e2BAE510E44Ed59116c1eC712795b"
  },
  {
    "name": "FtsoBch",
    "contractName": "Ftso.sol",
    "address": "0xe1B3b8F6b298b52bCd15357ED29e65e66a4045fF"
  },
  {
    "name": "FtsoDgb",
    "contractName": "Ftso.sol",
    "address": "0x8731324a6C09a1745bD15009Dc8FcceF11c05F4a"
  },
  {
    "name": "FtsoBtc",
    "contractName": "Ftso.sol",
    "address": "0x00aD4926D7613c8e00cB6CFa61831D5668265724"
  },
  {
    "name": "FtsoEth",
    "contractName": "Ftso.sol",
    "address": "0x79dC3dA279A2ADc72210BD00e10951AB9dC70ABc"
  },
  {
    "name": "FtsoFil",
    "contractName": "Ftso.sol",
    "address": "0xF0B4ACda6D679ea22AC5C4fD1973D0d58eA10ec1"
  }
]
